<?xml version="1.0" encoding="utf-8"?>
<!-- Generator: Adobe Illustrator 15.0.2, SVG Export Plug-In . SVG Version: 6.00 Build 0)  -->
<!DOCTYPE svg PUBLIC "-//W3C//DTD SVG 1.1//EN" "http://www.w3.org/Graphics/SVG/1.1/DTD/svg11.dtd">
<svg version="1.1" id="Layer_1" xmlns="http://www.w3.org/2000/svg" xmlns:xlink="http://www.w3.org/1999/xlink" x="0px" y="0px"
	 width="128px" height="128px" viewBox="0 0 128 128" enable-background="new 0 0 128 128" xml:space="preserve">
<g>
	<path fill="#879195" d="M110.709,45.913c0-25.242-20.607-45.726-46.101-45.911C64.492,0,64.375,0,64.258,0
		C38.604,0,17.807,20.557,17.807,45.913c0,10.011,3.25,19.266,8.75,26.812h-0.015l33.504,52.916h0.015
		c0.86,1.408,2.409,2.359,4.197,2.359c0.48,0,0.941-0.068,1.379-0.197c1.189-0.348,2.189-1.133,2.821-2.162h0.018l33.497-52.916
		h-0.016C107.457,65.179,110.709,55.924,110.709,45.913z M65.121,87.154c-0.286,0.008-0.575,0.01-0.863,0.01
		c-22.804,0-41.29-18.486-41.29-41.292c0-22.805,18.486-41.289,41.29-41.289c0.291,0,0.577,0.003,0.865,0.009
		c22.4,0.46,40.426,18.765,40.426,41.28C105.549,68.389,87.523,86.695,65.121,87.154z"/>
	<path fill="#4F5661" d="M65.123,4.592c-0.288-0.006-0.574-0.009-0.865-0.009c-22.804,0-41.29,18.484-41.29,41.289
		c0,22.806,18.486,41.292,41.29,41.292c0.288,0,0.577-0.002,0.863-0.01c22.402-0.459,40.428-18.766,40.428-41.282
		C105.549,23.356,87.523,5.052,65.123,4.592z"/>
	<path fill="#4F5661" d="M65.123,4.592c-0.288-0.006-0.574-0.009-0.865-0.009c-22.804,0-41.29,18.484-41.29,41.289
		c0,22.806,18.486,41.292,41.29,41.292c0.288,0,0.577-0.002,0.863-0.01c22.402-0.459,40.428-18.766,40.428-41.282
		C105.549,23.356,87.523,5.052,65.123,4.592z"/>
</g>
<g display="none">
	<path display="inline" fill="#01579B" d="M101.42,0C87.738,0,76.645,11.091,76.645,24.774c0,13.682,11.094,24.774,24.775,24.774
		s24.773-11.093,24.773-24.774C126.193,11.091,115.102,0,101.42,0z M101.42,48.959c-13.355,0-24.186-10.828-24.186-24.185
		c0-13.358,10.83-24.185,24.186-24.185c13.354,0,24.186,10.826,24.186,24.185C125.605,38.131,114.773,48.959,101.42,48.959z"/>
	<circle display="inline" fill="#01579B" cx="101.42" cy="24.774" r="24.774"/>
	<linearGradient id="SVGID_1_" gradientUnits="userSpaceOnUse" x1="101.4199" y1="1.0322" x2="101.4199" y2="48.5166">
		<stop  offset="0" style="stop-color:#00B0FF"/>
		<stop  offset="1" style="stop-color:#0091EA"/>
	</linearGradient>
	<path display="inline" fill="url(#SVGID_1_)" d="M101.42,1.032c-13.113,0-23.742,10.628-23.742,23.742
		c0,13.112,10.629,23.742,23.742,23.742c13.107,0,23.742-10.63,23.742-23.742C125.162,11.66,114.527,1.032,101.42,1.032z"/>
</g>
</svg>
