<?xml version="1.0" encoding="utf-8"?>
<!-- Generator: Adobe Illustrator 15.0.2, SVG Export Plug-In . SVG Version: 6.00 Build 0)  -->
<!DOCTYPE svg PUBLIC "-//W3C//DTD SVG 1.1//EN" "http://www.w3.org/Graphics/SVG/1.1/DTD/svg11.dtd">
<svg version="1.1" id="s" xmlns="http://www.w3.org/2000/svg" xmlns:xlink="http://www.w3.org/1999/xlink" x="0px" y="0px"
	 width="159.273px" height="195.062px" viewBox="0 0 159.273 195.062" enable-background="new 0 0 159.273 195.062"
	 xml:space="preserve">
<g>
	<linearGradient id="SVGID_1_" gradientUnits="userSpaceOnUse" x1="56.2505" y1="195.0615" x2="56.2505" y2="31.5615">
		<stop  offset="0.5" style="stop-color:#4C5660"/>
		<stop  offset="1" style="stop-color:#8A9398"/>
	</linearGradient>
	<path fill="url(#SVGID_1_)" d="M76.8,146.461c0.196-6-1.852-10.298-6.15-12.9c-4.303-2.597-10.65-4.997-19.05-7.2
		c-5.602-1.397-11.1-3.098-16.5-5.1c-5.4-1.997-10.35-4.65-14.85-7.95c-4.5-3.3-8.25-7.397-11.25-12.3
		c-3-4.898-4.903-10.95-5.7-18.15c-0.6-7.2,0.398-13.898,3-20.1c2.597-6.197,6.398-11.597,11.4-16.2
		c4.997-4.599,10.847-8.25,17.55-10.95c6.698-2.7,13.847-4.05,21.45-4.05c6.398,0,28.667,0,33.798,0
		c6.332,0,6.332-0.089,6.332,2.912c0,0-4.52,3.252-4.52,12.489c0,9.329,4.52,12.594,4.52,12.594c0,2.677,0,2.677-6.332,2.677
		c-3.36,0-26.599-0.073-34.999-0.073c-5.001,0-9.501,1.5-13.5,4.5c-4.003,3-5.4,7.303-4.2,12.9c0.797,3.403,3.75,6.103,8.85,8.1
		c5.1,2.001,12.75,4.701,22.95,8.1c6,2.002,11.597,4.402,16.8,7.2c5.198,2.803,9.75,6.202,13.65,10.2
		c3.899,4.003,6.946,8.803,9.149,14.4c2.199,5.602,3.301,12.103,3.301,19.5c0,7.604-1.552,14.354-4.65,20.25
		c-3.104,5.901-7.252,10.902-12.45,15c-5.203,4.102-11.203,7.246-18,9.449c-6.802,2.199-13.903,3.301-21.3,3.301
		c-6.6,0-13.251-1.252-19.95-3.75c-6.703-2.504-12.703-6-18-10.5c-5.301-4.5-9.651-9.998-13.05-16.5
		c-3.403-6.497-5.1-13.65-5.1-21.45h34.8c0.197,5.4,2.264,10.153,6.192,14.25c3.928,4.102,9.112,6.149,15.563,6.149
		c6.042,0,10.875-1.799,14.503-5.399S76.598,150.464,76.8,146.461z"/>
</g>
<linearGradient id="SVGID_2_" gradientUnits="userSpaceOnUse" x1="101.0776" y1="57.8208" x2="122.6725" y2="36.226">
	<stop  offset="0" style="stop-color:#1E79B0"/>
	<stop  offset="1" style="stop-color:#00FFFF"/>
</linearGradient>
<circle fill="url(#SVGID_2_)" cx="111.875" cy="47.023" r="15.27"/>
<linearGradient id="SVGID_3_" gradientUnits="userSpaceOnUse" x1="79.438" y1="79.8442" x2="145.5786" y2="13.7036">
	<stop  offset="0" style="stop-color:#1E79B0"/>
	<stop  offset="1" style="stop-color:#00FFFF"/>
</linearGradient>
<path fill="url(#SVGID_3_)" d="M112.501,0C95.381,0,80.42,9.205,72.27,22.93c-0.483,0.814-1.356,2.488,0.626,2.488
	s27.861,0,27.861,0c3.336-1.747,7.13-2.741,11.157-2.741c13.307,0,24.095,10.788,24.095,24.095
	c0,13.307-10.788,24.094-24.095,24.094c-3.559,0-6.934-0.778-9.974-2.163c0,0-27.581,0-28.94,0c-1.345,0-1.083,1.33-0.695,1.98
	c8.16,13.688,23.104,22.859,40.196,22.859c25.831,0,46.771-20.94,46.771-46.771C159.273,20.94,138.333,0,112.501,0z"/>
</svg>
